{
  "project_info": {
    "project_number": "661669394346",
    "firebase_url": "https://robolejos.firebaseio.com",
    "project_id": "robolejos",
    "storage_bucket": "robolejos.appspot.com"
  },
  "client": [
    {
      "client_info": {
        "mobilesdk_app_id": "1:661669394346:android:61be91877eac4675",
        "android_client_info": {
          "package_name": "com.example.robolejos.robolejos_mobile"
        }
      },
      "oauth_client": [
        {
          "client_id": "661669394346-0ls2ben0k85q77pd48rlqtdev6pcuoc6.apps.googleusercontent.com",
          "client_type": 1,
          "android_info": {
            "package_name": "com.example.robolejos.robolejos_mobile",
            "certificate_hash": "09acc8a358aeaa2e0cd33258eb1d7acdf8b14587"
          }
        },
        {
          "client_id": "661669394346-04lh42o8iuphi0n44r1ief795ae9is9m.apps.googleusercontent.com",
          "client_type": 3
        }
      ],
      "api_key": [
        {
          "current_key": "AIzaSyAz3ryRsunFIp4Ojy8TQ8M2LBB4Hnr0-Jc"
        }
      ],
      "services": {
        "analytics_service": {
          "status": 1
        },
        "appinvite_service": {
          "status": 2,
          "other_platform_oauth_client": [
            {
              "client_id": "661669394346-04lh42o8iuphi0n44r1ief795ae9is9m.apps.googleusercontent.com",
              "client_type": 3
            }
          ]
        },
        "ads_service": {
          "status": 2
        }
      }
    },
    {
      "client_info": {
        "mobilesdk_app_id": "1:661669394346:android:cb017a50e5f20ec2",
        "android_client_info": {
          "package_name": "robolejos.robolejosmobileandroid"
        }
      },
      "oauth_client": [
        {
          "client_id": "661669394346-6lct5ae596ff988v6sfb5eogb902uv9v.apps.googleusercontent.com",
          "client_type": 1,
          "android_info": {
            "package_name": "robolejos.robolejosmobileandroid",
            "certificate_hash": "09acc8a358aeaa2e0cd33258eb1d7acdf8b14587"
          }
        },
        {
          "client_id": "661669394346-04lh42o8iuphi0n44r1ief795ae9is9m.apps.googleusercontent.com",
          "client_type": 3
        }
      ],
      "api_key": [
        {
          "current_key": "AIzaSyAz3ryRsunFIp4Ojy8TQ8M2LBB4Hnr0-Jc"
        }
      ],
      "services": {
        "analytics_service": {
          "status": 1
        },
        "appinvite_service": {
          "status": 2,
          "other_platform_oauth_client": [
            {
              "client_id": "661669394346-04lh42o8iuphi0n44r1ief795ae9is9m.apps.googleusercontent.com",
              "client_type": 3
            }
          ]
        },
        "ads_service": {
          "status": 2
        }
      }
    }
  ],
  "configuration_version": "1"
}